1.what is # 
2.what is include
3.what is <
4.what is stdio.h
5.what is .
6.what is int
7.what is main
8.what is (
9.what is argc
9.what is ,
10.what is char
11.what is **
12.what is argv
13.what is )
14.what is {
15.what is printf
16.what is "
17.what is hello world
18.what is \
19.what is hello world\n"
20.what is ;
21.what is return
22.what is 0
23.what is }
24.what is .h
25.what is \n

